%YAML 1.1
%TAG !u! tag:unity3d.com,2011:
--- !u!114 &11400000
MonoBehaviour:
  m_ObjectHideFlags: 0
  m_CorrespondingSourceObject: {fileID: 0}
  m_PrefabInstance: {fileID: 0}
  m_PrefabAsset: {fileID: 0}
  m_GameObject: {fileID: 0}
  m_Enabled: 1
  m_EditorHideFlags: 0
  m_Script: {fileID: 11500000, guid: 4bb395df401b3244db6e7e9a0b2c8706, type: 3}
  m_Name: Bronkodilator
  m_EditorClassIdentifier: 
  _name: Bronkodilator
  _energy: 12
  _energyPercentage: 7.5
  _description: Bronkodilator adalah kelompok obat ayang digunakan untuk melegakan
    pernafasan, alat ini bekerja dengan cara melebarkan bronkus (saluran pernafasan)
    dan merelaksasi otot-otot pada saluran pernapasan sehingga proses bernafas menjadi
    lebih ringan dan lancar. Obat ini sering diberikan pada orang yang memiliki keluhan
    nafas berat. Obat bronkodilator tersedia dalam sediaan oral, injeksi atau suntikan,
    serta sebagai terapi aerosol atau obat hirup.
  artWork: {fileID: 21300000, guid: 4263386787fe37fdd999a7f987d135ac, type: 3}
