%YAML 1.1
%TAG !u! tag:unity3d.com,2011:
--- !u!114 &11400000
MonoBehaviour:
  m_ObjectHideFlags: 0
  m_CorrespondingSourceObject: {fileID: 0}
  m_PrefabInstance: {fileID: 0}
  m_PrefabAsset: {fileID: 0}
  m_GameObject: {fileID: 0}
  m_Enabled: 1
  m_EditorHideFlags: 0
  m_Script: {fileID: 11500000, guid: 4bb395df401b3244db6e7e9a0b2c8706, type: 3}
  m_Name: MakananBerserat
  m_EditorClassIdentifier: 
  _name: Perbanyak Makanan Berserat
  _energy: 4
  _energyPercentage: 1.5
  _description: Pasien juga harus rutin mengkonsumsi makanan berserat tinggi, misalnya
    buah, sayur, beras merah dan aneka kacang-kacangan seperti olahan kedelai. Selain
    dapat melancarkan proses pencernaan, deretan makanan berserat tinggi tersebut
    juga mengandung banyak nutrisi yang mampu meningkatkan proses pemulihan Anda
    pascaoperasi.
  artWork: {fileID: 21300000, guid: 63b2eef1ae17bc01f8c83b0b03222725, type: 3}
  _onCooldown: 0
  _cooldown: 10
  _defaultCooldown: 10
