%YAML 1.1
%TAG !u! tag:unity3d.com,2011:
--- !u!114 &11400000
MonoBehaviour:
  m_ObjectHideFlags: 0
  m_CorrespondingSourceObject: {fileID: 0}
  m_PrefabInstance: {fileID: 0}
  m_PrefabAsset: {fileID: 0}
  m_GameObject: {fileID: 0}
  m_Enabled: 1
  m_EditorHideFlags: 0
  m_Script: {fileID: 11500000, guid: 4bb395df401b3244db6e7e9a0b2c8706, type: 3}
  m_Name: PenekanSistemImun
  m_EditorClassIdentifier: 
  _name: Obat Penekan Sistem Imun
  _energy: 5
  _energyPercentage: 2
  _description: Obat penekan sistem imun atau immunosuppressant sering diresepkan
    bagi pengidap radang usus besar yang disebabkan penyakit Crohn. Penyakit Crohn
    adalah penyakit autoimun yang membuat sistem imun berbalik menyerang jaringan
    usus sehat karena menganggapnya benda asing. Obat ini bekerja menekan respons
    imun yang melepaskan bahan kimia penyebab peradangan di usus.
  artWork: {fileID: 21300000, guid: 667084b92490ac81abc6317d4620d990, type: 3}
  _onCooldown: 0
  _cooldown: 10
