%YAML 1.1
%TAG !u! tag:unity3d.com,2011:
--- !u!114 &11400000
MonoBehaviour:
  m_ObjectHideFlags: 0
  m_CorrespondingSourceObject: {fileID: 0}
  m_PrefabInstance: {fileID: 0}
  m_PrefabAsset: {fileID: 0}
  m_GameObject: {fileID: 0}
  m_Enabled: 1
  m_EditorHideFlags: 0
  m_Script: {fileID: 11500000, guid: 4bb395df401b3244db6e7e9a0b2c8706, type: 3}
  m_Name: RutinOlahraga
  m_EditorClassIdentifier: 
  _name: Rutin Olahraga
  _energy: 5
  _energyPercentage: 2
  _description: Saat mulai berolahraga dan menggerakkan tubuh, sel otot akan mengeluarkan
    sejumlah kecil protein yang disebut interleukin-6 (IL-6). Protein IL-6 ini berperan
    penting dalam melawan peradangan.
  artWork: {fileID: 21300000, guid: 3a6e99081f7c96b73a441bb6808d8aa3, type: 3}
  _onCooldown: 0
  _cooldown: 10
