%YAML 1.1
%TAG !u! tag:unity3d.com,2011:
--- !u!114 &11400000
MonoBehaviour:
  m_ObjectHideFlags: 0
  m_CorrespondingSourceObject: {fileID: 0}
  m_PrefabInstance: {fileID: 0}
  m_PrefabAsset: {fileID: 0}
  m_GameObject: {fileID: 0}
  m_Enabled: 1
  m_EditorHideFlags: 0
  m_Script: {fileID: 11500000, guid: 1b8b1d9335648754f922ce237830a7fe, type: 3}
  m_Name: Overwork
  m_EditorClassIdentifier: 
  _name: Overwork
  _damage: 0.5
  _description: Kerja berlebihan
  _interval: 5
  _startInverval: 5
